6th Semester/dsd_lab/project/transcript
vsim work.new_test
# vsim work.new_test 
# Start time: 09:28:43 on Jun 25,2024
# Loading work.new_test
# Loading work.automatic_washing_machine
run
# Time=                   0, Clock=0, Reset=1, start=0, door_close=0, filled=0, detergent_added=0, cycle_timeout=0, drained=0, spin_timeout=0, door_lock=x, motor_on=x, fill_valve_on=x, drain_valve_on=x, soap_wash=x, water_wash=x, done=x
# Time=                   5, Clock=1, Reset=0, start=0, door_close=0, filled=0, detergent_added=0, cycle_timeout=0, drained=0, spin_timeout=0, door_lock=0, motor_on=0, fill_valve_on=0, drain_valve_on=0, soap_wash=0, water_wash=0, done=0
# Time=                  10, Clock=0, Reset=0, start=1, door_close=1, filled=0, detergent_added=0, cycle_timeout=0, drained=0, spin_timeout=0, door_lock=1, motor_on=0, fill_valve_on=0, drain_valve_on=0, soap_wash=0, water_wash=0, done=0
# Time=                  15, Clock=1, Reset=0, start=1, door_close=1, filled=0, detergent_added=0, cycle_timeout=0, drained=0, spin_timeout=0, door_lock=1, motor_on=0, fill_valve_on=1, drain_valve_on=0, soap_wash=0, water_wash=0, done=0
# Time=                  20, Clock=0, Reset=0, start=1, door_close=1, filled=1, detergent_added=0, cycle_timeout=0, drained=0, spin_timeout=0, door_lock=1, motor_on=0, fill_valve_on=0, drain_valve_on=0, soap_wash=1, water_wash=0, done=0
# Time=                  25, Clock=1, Reset=0, start=1, door_close=1, filled=1, detergent_added=0, cycle_timeout=0, drained=0, spin_timeout=0, door_lock=1, motor_on=0, fill_valve_on=0, drain_valve_on=0, soap_wash=1, water_wash=0, done=0
# Time=                  30, Clock=0, Reset=0, start=1, door_close=1, filled=1, detergent_added=1, cycle_timeout=0, drained=0, spin_timeout=0, door_lock=1, motor_on=0, fill_valve_on=0, drain_valve_on=0, soap_wash=1, water_wash=0, done=0
# Time=                  35, Clock=1, Reset=0, start=1, door_close=1, filled=1, detergent_added=1, cycle_timeout=0, drained=0, spin_timeout=0, door_lock=1, motor_on=1, fill_valve_on=0, drain_valve_on=0, soap_wash=1, water_wash=0, done=0
# Time=                  40, Clock=0, Reset=0, start=1, door_close=1, filled=1, detergent_added=1, cycle_timeout=1, drained=0, spin_timeout=0, door_lock=1, motor_on=0, fill_valve_on=0, drain_valve_on=0, soap_wash=1, water_wash=0, done=0
# Time=                  45, Clock=1, Reset=0, start=1, door_close=1, filled=1, detergent_added=1, cycle_timeout=1, drained=0, spin_timeout=0, door_lock=1, motor_on=0, fill_valve_on=0, drain_valve_on=1, soap_wash=1, water_wash=0, done=0
# Time=                  50, Clock=0, Reset=0, start=1, door_close=1, filled=1, detergent_added=1, cycle_timeout=1, drained=1, spin_timeout=0, door_lock=1, motor_on=0, fill_valve_on=0, drain_valve_on=0, soap_wash=1, water_wash=0, done=0
# Time=                  55, Clock=1, Reset=0, start=1, door_close=1, filled=1, detergent_added=1, cycle_timeout=1, drained=1, spin_timeout=0, door_lock=1, motor_on=0, fill_valve_on=0, drain_valve_on=0, soap_wash=1, water_wash=1, done=0
# Time=                  60, Clock=0, Reset=0, start=1, door_close=1, filled=1, detergent_added=1, cycle_timeout=1, drained=1, spin_timeout=1, door_lock=1, motor_on=0, fill_valve_on=0, drain_valve_on=0, soap_wash=1, water_wash=1, done=0
# Time=                  65, Clock=1, Reset=0, start=1, door_close=1, filled=1, detergent_added=1, cycle_timeout=1, drained=1, spin_timeout=1, door_lock=1, motor_on=0, fill_valve_on=0, drain_valve_on=0, soap_wash=1, water_wash=1, done=0
# Time=                  70, Clock=0, Reset=0, start=1, door_close=1, filled=1, detergent_added=1, cycle_timeout=1, drained=1, spin_timeout=1, door_lock=1, motor_on=0, fill_valve_on=0, drain_valve_on=0, soap_wash=1, water_wash=1, done=0
# Time=                  75, Clock=1, Reset=0, start=1, door_close=1, filled=1, detergent_added=1, cycle_timeout=1, drained=1, spin_timeout=1, door_lock=1, motor_on=0, fill_valve_on=0, drain_valve_on=0, soap_wash=1, water_wash=1, done=0
# Time=                  80, Clock=0, Reset=0, start=1, door_close=1, filled=1, detergent_added=1, cycle_timeout=1, drained=1, spin_timeout=1, door_lock=1, motor_on=0, fill_valve_on=0, drain_valve_on=0, soap_wash=1, water_wash=1, done=0
# Time=                  85, Clock=1, Reset=0, start=1, door_close=1, filled=1, detergent_added=1, cycle_timeout=1, drained=1, spin_timeout=1, door_lock=1, motor_on=0, fill_valve_on=0, drain_valve_on=0, soap_wash=1, water_wash=1, done=1
# Time=                  90, Clock=0, Reset=0, start=1, door_close=1, filled=1, detergent_added=1, cycle_timeout=1, drained=1, spin_timeout=1, door_lock=1, motor_on=0, fill_valve_on=0, drain_valve_on=0, soap_wash=1, water_wash=1, done=1
# Time=                  95, Clock=1, Reset=0, start=1, door_close=1, filled=1, detergent_added=1, cycle_timeout=1, drained=1, spin_timeout=1, door_lock=1, motor_on=0, fill_valve_on=0, drain_valve_on=0, soap_wash=1, water_wash=1, done=0
run
# Time=                 100, Clock=0, Reset=0, start=1, door_close=1, filled=1, detergent_added=1, cycle_timeout=1, drained=1, spin_timeout=1, door_lock=1, motor_on=0, fill_valve_on=0, drain_valve_on=0, soap_wash=1, water_wash=1, done=0
# Time=                 105, Clock=1, Reset=0, start=1, door_close=1, filled=1, detergent_added=1, cycle_timeout=1, drained=1, spin_timeout=1, door_lock=1, motor_on=0, fill_valve_on=0, drain_valve_on=0, soap_wash=1, water_wash=1, done=0
# Time=                 110, Clock=0, Reset=0, start=1, door_close=1, filled=1, detergent_added=1, cycle_timeout=1, drained=1, spin_timeout=1, door_lock=1, motor_on=0, fill_valve_on=0, drain_valve_on=0, soap_wash=1, water_wash=1, done=0
# Time=                 115, Clock=1, Reset=0, start=1, door_close=1, filled=1, detergent_added=1, cycle_timeout=1, drained=1, spin_timeout=1, door_lock=1, motor_on=0, fill_valve_on=0, drain_valve_on=0, soap_wash=1, water_wash=1, done=0
# Time=                 120, Clock=0, Reset=0, start=1, door_close=1, filled=1, detergent_added=1, cycle_timeout=1, drained=1, spin_timeout=1, door_lock=1, motor_on=0, fill_valve_on=0, drain_valve_on=0, soap_wash=1, water_wash=1, done=0
# Time=                 125, Clock=1, Reset=0, start=1, door_close=1, filled=1, detergent_added=1, cycle_timeout=1, drained=1, spin_timeout=1, door_lock=1, motor_on=0, fill_valve_on=0, drain_valve_on=0, soap_wash=1, water_wash=1, done=1
# Time=                 130, Clock=0, Reset=0, start=1, door_close=1, filled=1, detergent_added=1, cycle_timeout=1, drained=1, spin_timeout=1, door_lock=1, motor_on=0, fill_valve_on=0, drain_valve_on=0, soap_wash=1, water_wash=1, done=1
# Time=                 135, Clock=1, Reset=0, start=1, door_close=1, filled=1, detergent_added=1, cycle_timeout=1, drained=1, spin_timeout=1, door_lock=1, motor_on=0, fill_valve_on=0, drain_valve_on=0, soap_wash=1, water_wash=1, done=0
# Time=                 140, Clock=0, Reset=0, start=1, door_close=1, filled=1, detergent_added=1, cycle_timeout=1, drained=1, spin_timeout=1, door_lock=1, motor_on=0, fill_valve_on=0, drain_valve_on=0, soap_wash=1, water_wash=1, done=0
# Time=                 145, Clock=1, Reset=0, start=1, door_close=1, filled=1, detergent_added=1, cycle_timeout=1, drained=1, spin_timeout=1, door_lock=1, motor_on=0, fill_valve_on=0, drain_valve_on=0, soap_wash=1, water_wash=1, done=0
# Time=                 150, Clock=0, Reset=0, start=1, door_close=1, filled=1, detergent_added=1, cycle_timeout=1, drained=1, spin_timeout=1, door_lock=1, motor_on=0, fill_valve_on=0, drain_valve_on=0, soap_wash=1, water_wash=1, done=0
# Time=                 155, Clock=1, Reset=0, start=1, door_close=1, filled=1, detergent_added=1, cycle_timeout=1, drained=1, spin_timeout=1, door_lock=1, motor_on=0, fill_valve_on=0, drain_valve_on=0, soap_wash=1, water_wash=1, done=0
# Time=                 160, Clock=0, Reset=0, start=1, door_close=1, filled=1, detergent_added=1, cycle_timeout=1, drained=1, spin_timeout=1, door_lock=1, motor_on=0, fill_valve_on=0, drain_valve_on=0, soap_wash=1, water_wash=1, done=0
# Time=                 165, Clock=1, Reset=0, start=1, door_close=1, filled=1, detergent_added=1, cycle_timeout=1, drained=1, spin_timeout=1, door_lock=1, motor_on=0, fill_valve_on=0, drain_valve_on=0, soap_wash=1, water_wash=1, done=1
# Time=                 170, Clock=0, Reset=0, start=1, door_close=1, filled=1, detergent_added=1, cycle_timeout=1, drained=1, spin_timeout=1, door_lock=1, motor_on=0, fill_valve_on=0, drain_valve_on=0, soap_wash=1, water_wash=1, done=1
# Time=                 175, Clock=1, Reset=0, start=1, door_close=1, filled=1, detergent_added=1, cycle_timeout=1, drained=1, spin_timeout=1, door_lock=1, motor_on=0, fill_valve_on=0, drain_valve_on=0, soap_wash=1, water_wash=1, done=0
# Time=                 180, Clock=0, Reset=0, start=1, door_close=1, filled=1, detergent_added=1, cycle_timeout=1, drained=1, spin_timeout=1, door_lock=1, motor_on=0, fill_valve_on=0, drain_valve_on=0, soap_wash=1, water_wash=1, done=0
# Time=                 185, Clock=1, Reset=0, start=1, door_close=1, filled=1, detergent_added=1, cycle_timeout=1, drained=1, spin_timeout=1, door_lock=1, motor_on=0, fill_valve_on=0, drain_valve_on=0, soap_wash=1, water_wash=1, done=0
# Time=                 190, Clock=0, Reset=0, start=1, door_close=1, filled=1, detergent_added=1, cycle_timeout=1, drained=1, spin_timeout=1, door_lock=1, motor_on=0, fill_valve_on=0, drain_valve_on=0, soap_wash=1, water_wash=1, done=0
# Time=                 195, Clock=1, Reset=0, start=1, door_close=1, filled=1, detergent_added=1, cycle_timeout=1, drained=1, spin_timeout=1, door_lock=1, motor_on=0, fill_valve_on=0, drain_valve_on=0, soap_wash=1, water_wash=1, done=0
run
# Time=                 200, Clock=0, Reset=0, start=1, door_close=1, filled=1, detergent_added=1, cycle_timeout=1, drained=1, spin_timeout=1, door_lock=1, motor_on=0, fill_valve_on=0, drain_valve_on=0, soap_wash=1, water_wash=1, done=0
# Time=                 205, Clock=1, Reset=0, start=1, door_close=1, filled=1, detergent_added=1, cycle_timeout=1, drained=1, spin_timeout=1, door_lock=1, motor_on=0, fill_valve_on=0, drain_valve_on=0, soap_wash=1, water_wash=1, done=1
# Time=                 210, Clock=0, Reset=0, start=1, door_close=1, filled=1, detergent_added=1, cycle_timeout=1, drained=1, spin_timeout=1, door_lock=1, motor_on=0, fill_valve_on=0, drain_valve_on=0, soap_wash=1, water_wash=1, done=1
# Time=                 215, Clock=1, Reset=0, start=1, door_close=1, filled=1, detergent_added=1, cycle_timeout=1, drained=1, spin_timeout=1, door_lock=1, motor_on=0, fill_valve_on=0, drain_valve_on=0, soap_wash=1, water_wash=1, done=0
# Time=                 220, Clock=0, Reset=0, start=1, door_close=1, filled=1, detergent_added=1, cycle_timeout=1, drained=1, spin_timeout=1, door_lock=1, motor_on=0, fill_valve_on=0, drain_valve_on=0, soap_wash=1, water_wash=1, done=0
# Time=                 225, Clock=1, Reset=0, start=1, door_close=1, filled=1, detergent_added=1, cycle_timeout=1, drained=1, spin_timeout=1, door_lock=1, motor_on=0, fill_valve_on=0, drain_valve_on=0, soap_wash=1, water_wash=1, done=0
# Time=                 230, Clock=0, Reset=0, start=1, door_close=1, filled=1, detergent_added=1, cycle_timeout=1, drained=1, spin_timeout=1, door_lock=1, motor_on=0, fill_valve_on=0, drain_valve_on=0, soap_wash=1, water_wash=1, done=0
# Time=                 235, Clock=1, Reset=0, start=1, door_close=1, filled=1, detergent_added=1, cycle_timeout=1, drained=1, spin_timeout=1, door_lock=1, motor_on=0, fill_valve_on=0, drain_valve_on=0, soap_wash=1, water_wash=1, done=0
# Time=                 240, Clock=0, Reset=0, start=1, door_close=1, filled=1, detergent_added=1, cycle_timeout=1, drained=1, spin_timeout=1, door_lock=1, motor_on=0, fill_valve_on=0, drain_valve_on=0, soap_wash=1, water_wash=1, done=0
# Time=                 245, Clock=1, Reset=0, start=1, door_close=1, filled=1, detergent_added=1, cycle_timeout=1, drained=1, spin_timeout=1, door_lock=1, motor_on=0, fill_valve_on=0, drain_valve_on=0, soap_wash=1, water_wash=1, done=1
# Time=                 250, Clock=0, Reset=0, start=1, door_close=1, filled=1, detergent_added=1, cycle_timeout=1, drained=1, spin_timeout=1, door_lock=1, motor_on=0, fill_valve_on=0, drain_valve_on=0, soap_wash=1, water_wash=1, done=1
# Time=                 255, Clock=1, Reset=0, start=1, door_close=1, filled=1, detergent_added=1, cycle_timeout=1, drained=1, spin_timeout=1, door_lock=1, motor_on=0, fill_valve_on=0, drain_valve_on=0, soap_wash=1, water_wash=1, done=0
# Time=                 260, Clock=0, Reset=0, start=1, door_close=1, filled=1, detergent_added=1, cycle_timeout=1, drained=1, spin_timeout=1, door_lock=1, motor_on=0, fill_valve_on=0, drain_valve_on=0, soap_wash=1, water_wash=1, done=0
# Time=                 265, Clock=1, Reset=0, start=1, door_close=1, filled=1, detergent_added=1, cycle_timeout=1, drained=1, spin_timeout=1, door_lock=1, motor_on=0, fill_valve_on=0, drain_valve_on=0, soap_wash=1, water_wash=1, done=0
# Time=                 270, Clock=0, Reset=0, start=1, door_close=1, filled=1, detergent_added=1, cycle_timeout=1, drained=1, spin_timeout=1, door_lock=1, motor_on=0, fill_valve_on=0, drain_valve_on=0, soap_wash=1, water_wash=1, done=0
# Time=                 275, Clock=1, Reset=0, start=1, door_close=1, filled=1, detergent_added=1, cycle_timeout=1, drained=1, spin_timeout=1, door_lock=1, motor_on=0, fill_valve_on=0, drain_valve_on=0, soap_wash=1, water_wash=1, done=0
# Time=                 280, Clock=0, Reset=0, start=1, door_close=1, filled=1, detergent_added=1, cycle_timeout=1, drained=1, spin_timeout=1, door_lock=1, motor_on=0, fill_valve_on=0, drain_valve_on=0, soap_wash=1, water_wash=1, done=0
# Time=                 285, Clock=1, Reset=0, start=1, door_close=1, filled=1, detergent_added=1, cycle_timeout=1, drained=1, spin_timeout=1, door_lock=1, motor_on=0, fill_valve_on=0, drain_valve_on=0, soap_wash=1, water_wash=1, done=1
# Time=                 290, Clock=0, Reset=0, start=1, door_close=1, filled=1, detergent_added=1, cycle_timeout=1, drained=1, spin_timeout=1, door_lock=1, motor_on=0, fill_valve_on=0, drain_valve_on=0, soap_wash=1, water_wash=1, done=1
# Time=                 295, Clock=1, Reset=0, start=1, door_close=1, filled=1, detergent_added=1, cycle_timeout=1, drained=1, spin_timeout=1, door_lock=1, motor_on=0, fill_valve_on=0, drain_valve_on=0, soap_wash=1, water_wash=1, done=0
run
# Time=                 300, Clock=0, Reset=0, start=1, door_close=1, filled=1, detergent_added=1, cycle_timeout=1, drained=1, spin_timeout=1, door_lock=1, motor_on=0, fill_valve_on=0, drain_valve_on=0, soap_wash=1, water_wash=1, done=0
# Time=                 305, Clock=1, Reset=0, start=1, door_close=1, filled=1, detergent_added=1, cycle_timeout=1, drained=1, spin_timeout=1, door_lock=1, motor_on=0, fill_valve_on=0, drain_valve_on=0, soap_wash=1, water_wash=1, done=0
# Time=                 310, Clock=0, Reset=0, start=1, door_close=1, filled=1, detergent_added=1, cycle_timeout=1, drained=1, spin_timeout=1, door_lock=1, motor_on=0, fill_valve_on=0, drain_valve_on=0, soap_wash=1, water_wash=1, done=0
# Time=                 315, Clock=1, Reset=0, start=1, door_close=1, filled=1, detergent_added=1, cycle_timeout=1, drained=1, spin_timeout=1, door_lock=1, motor_on=0, fill_valve_on=0, drain_valve_on=0, soap_wash=1, water_wash=1, done=0
# Time=                 320, Clock=0, Reset=0, start=1, door_close=1, filled=1, detergent_added=1, cycle_timeout=1, drained=1, spin_timeout=1, door_lock=1, motor_on=0, fill_valve_on=0, drain_valve_on=0, soap_wash=1, water_wash=1, done=0
# Time=                 325, Clock=1, Reset=0, start=1, door_close=1, filled=1, detergent_added=1, cycle_timeout=1, drained=1, spin_timeout=1, door_lock=1, motor_on=0, fill_valve_on=0, drain_valve_on=0, soap_wash=1, water_wash=1, done=1
# Time=                 330, Clock=0, Reset=0, start=1, door_close=1, filled=1, detergent_added=1, cycle_timeout=1, drained=1, spin_timeout=1, door_lock=1, motor_on=0, fill_valve_on=0, drain_valve_on=0, soap_wash=1, water_wash=1, done=1
# Time=                 335, Clock=1, Reset=0, start=1, door_close=1, filled=1, detergent_added=1, cycle_timeout=1, drained=1, spin_timeout=1, door_lock=1, motor_on=0, fill_valve_on=0, drain_valve_on=0, soap_wash=1, water_wash=1, done=0
# Time=                 340, Clock=0, Reset=0, start=1, door_close=1, filled=1, detergent_added=1, cycle_timeout=1, drained=1, spin_timeout=1, door_lock=1, motor_on=0, fill_valve_on=0, drain_valve_on=0, soap_wash=1, water_wash=1, done=0
# Time=                 345, Clock=1, Reset=0, start=1, door_close=1, filled=1, detergent_added=1, cycle_timeout=1, drained=1, spin_timeout=1, door_lock=1, motor_on=0, fill_valve_on=0, drain_valve_on=0, soap_wash=1, water_wash=1, done=0
# Time=                 350, Clock=0, Reset=0, start=1, door_close=1, filled=1, detergent_added=1, cycle_timeout=1, drained=1, spin_timeout=1, door_lock=1, motor_on=0, fill_valve_on=0, drain_valve_on=0, soap_wash=1, water_wash=1, done=0
# Time=                 355, Clock=1, Reset=0, start=1, door_close=1, filled=1, detergent_added=1, cycle_timeout=1, drained=1, spin_timeout=1, door_lock=1, motor_on=0, fill_valve_on=0, drain_valve_on=0, soap_wash=1, water_wash=1, done=0
# Time=                 360, Clock=0, Reset=0, start=1, door_close=1, filled=1, detergent_added=1, cycle_timeout=1, drained=1, spin_timeout=1, door_lock=1, motor_on=0, fill_valve_on=0, drain_valve_on=0, soap_wash=1, water_wash=1, done=0
# Time=                 365, Clock=1, Reset=0, start=1, door_close=1, filled=1, detergent_added=1, cycle_timeout=1, drained=1, spin_timeout=1, door_lock=1, motor_on=0, fill_valve_on=0, drain_valve_on=0, soap_wash=1, water_wash=1, done=1
# Time=                 370, Clock=0, Reset=0, start=1, door_close=1, filled=1, detergent_added=1, cycle_timeout=1, drained=1, spin_timeout=1, door_lock=1, motor_on=0, fill_valve_on=0, drain_valve_on=0, soap_wash=1, water_wash=1, done=1
# Time=                 375, Clock=1, Reset=0, start=1, door_close=1, filled=1, detergent_added=1, cycle_timeout=1, drained=1, spin_timeout=1, door_lock=1, motor_on=0, fill_valve_on=0, drain_valve_on=0, soap_wash=1, water_wash=1, done=0
# Time=                 380, Clock=0, Reset=0, start=1, door_close=1, filled=1, detergent_added=1, cycle_timeout=1, drained=1, spin_timeout=1, door_lock=1, motor_on=0, fill_valve_on=0, drain_valve_on=0, soap_wash=1, water_wash=1, done=0
# Time=                 385, Clock=1, Reset=0, start=1, door_close=1, filled=1, detergent_added=1, cycle_timeout=1, drained=1, spin_timeout=1, door_lock=1, motor_on=0, fill_valve_on=0, drain_valve_on=0, soap_wash=1, water_wash=1, done=0
# Time=                 390, Clock=0, Reset=0, start=1, door_close=1, filled=1, detergent_added=1, cycle_timeout=1, drained=1, spin_timeout=1, door_lock=1, motor_on=0, fill_valve_on=0, drain_valve_on=0, soap_wash=1, water_wash=1, done=0
# Time=                 395, Clock=1, Reset=0, start=1, door_close=1, filled=1, detergent_added=1, cycle_timeout=1, drained=1, spin_timeout=1, door_lock=1, motor_on=0, fill_valve_on=0, drain_valve_on=0, soap_wash=1, water_wash=1, done=0
run
# Time=                 400, Clock=0, Reset=0, start=1, door_close=1, filled=1, detergent_added=1, cycle_timeout=1, drained=1, spin_timeout=1, door_lock=1, motor_on=0, fill_valve_on=0, drain_valve_on=0, soap_wash=1, water_wash=1, done=0
# Time=                 405, Clock=1, Reset=0, start=1, door_close=1, filled=1, detergent_added=1, cycle_timeout=1, drained=1, spin_timeout=1, door_lock=1, motor_on=0, fill_valve_on=0, drain_valve_on=0, soap_wash=1, water_wash=1, done=1
# Time=                 410, Clock=0, Reset=0, start=1, door_close=1, filled=1, detergent_added=1, cycle_timeout=1, drained=1, spin_timeout=1, door_lock=1, motor_on=0, fill_valve_on=0, drain_valve_on=0, soap_wash=1, water_wash=1, done=1
# Time=                 415, Clock=1, Reset=0, start=1, door_close=1, filled=1, detergent_added=1, cycle_timeout=1, drained=1, spin_timeout=1, door_lock=1, motor_on=0, fill_valve_on=0, drain_valve_on=0, soap_wash=1, water_wash=1, done=0
# Time=                 420, Clock=0, Reset=0, start=1, door_close=1, filled=1, detergent_added=1, cycle_timeout=1, drained=1, spin_timeout=1, door_lock=1, motor_on=0, fill_valve_on=0, drain_valve_on=0, soap_wash=1, water_wash=1, done=0
# Time=                 425, Clock=1, Reset=0, start=1, door_close=1, filled=1, detergent_added=1, cycle_timeout=1, drained=1, spin_timeout=1, door_lock=1, motor_on=0, fill_valve_on=0, drain_valve_on=0, soap_wash=1, water_wash=1, done=0
# Time=                 430, Clock=0, Reset=0, start=1, door_close=1, filled=1, detergent_added=1, cycle_timeout=1, drained=1, spin_timeout=1, door_lock=1, motor_on=0, fill_valve_on=0, drain_valve_on=0, soap_wash=1, water_wash=1, done=0
# Time=                 435, Clock=1, Reset=0, start=1, door_close=1, filled=1, detergent_added=1, cycle_timeout=1, drained=1, spin_timeout=1, door_lock=1, motor_on=0, fill_valve_on=0, drain_valve_on=0, soap_wash=1, water_wash=1, done=0
# Time=                 440, Clock=0, Reset=0, start=1, door_close=1, filled=1, detergent_added=1, cycle_timeout=1, drained=1, spin_timeout=1, door_lock=1, motor_on=0, fill_valve_on=0, drain_valve_on=0, soap_wash=1, water_wash=1, done=0
# Time=                 445, Clock=1, Reset=0, start=1, door_close=1, filled=1, detergent_added=1, cycle_timeout=1, drained=1, spin_timeout=1, door_lock=1, motor_on=0, fill_valve_on=0, drain_valve_on=0, soap_wash=1, water_wash=1, done=1
# Time=                 450, Clock=0, Reset=0, start=1, door_close=1, filled=1, detergent_added=1, cycle_timeout=1, drained=1, spin_timeout=1, door_lock=1, motor_on=0, fill_valve_on=0, drain_valve_on=0, soap_wash=1, water_wash=1, done=1
# Time=                 455, Clock=1, Reset=0, start=1, door_close=1, filled=1, detergent_added=1, cycle_timeout=1, drained=1, spin_timeout=1, door_lock=1, motor_on=0, fill_valve_on=0, drain_valve_on=0, soap_wash=1, water_wash=1, done=0
# Time=                 460, Clock=0, Reset=0, start=1, door_close=1, filled=1, detergent_added=1, cycle_timeout=1, drained=1, spin_timeout=1, door_lock=1, motor_on=0, fill_valve_on=0, drain_valve_on=0, soap_wash=1, water_wash=1, done=0
# Time=                 465, Clock=1, Reset=0, start=1, door_close=1, filled=1, detergent_added=1, cycle_timeout=1, drained=1, spin_timeout=1, door_lock=1, motor_on=0, fill_valve_on=0, drain_valve_on=0, soap_wash=1, water_wash=1, done=0
# Time=                 470, Clock=0, Reset=0, start=1, door_close=1, filled=1, detergent_added=1, cycle_timeout=1, drained=1, spin_timeout=1, door_lock=1, motor_on=0, fill_valve_on=0, drain_valve_on=0, soap_wash=1, water_wash=1, done=0
# Time=                 475, Clock=1, Reset=0, start=1, door_close=1, filled=1, detergent_added=1, cycle_timeout=1, drained=1, spin_timeout=1, door_lock=1, motor_on=0, fill_valve_on=0, drain_valve_on=0, soap_wash=1, water_wash=1, done=0
# Time=                 480, Clock=0, Reset=0, start=1, door_close=1, filled=1, detergent_added=1, cycle_timeout=1, drained=1, spin_timeout=1, door_lock=1, motor_on=0, fill_valve_on=0, drain_valve_on=0, soap_wash=1, water_wash=1, done=0
# Time=                 485, Clock=1, Reset=0, start=1, door_close=1, filled=1, detergent_added=1, cycle_timeout=1, drained=1, spin_timeout=1, door_lock=1, motor_on=0, fill_valve_on=0, drain_valve_on=0, soap_wash=1, water_wash=1, done=1
# Time=                 490, Clock=0, Reset=0, start=1, door_close=1, filled=1, detergent_added=1, cycle_timeout=1, drained=1, spin_timeout=1, door_lock=1, motor_on=0, fill_valve_on=0, drain_valve_on=0, soap_wash=1, water_wash=1, done=1
# Time=                 495, Clock=1, Reset=0, start=1, door_close=1, filled=1, detergent_added=1, cycle_timeout=1, drained=1, spin_timeout=1, door_lock=1, motor_on=0, fill_valve_on=0, drain_valve_on=0, soap_wash=1, water_wash=1, done=0
run
# Time=                 500, Clock=0, Reset=0, start=1, door_close=1, filled=1, detergent_added=1, cycle_timeout=1, drained=1, spin_timeout=1, door_lock=1, motor_on=0, fill_valve_on=0, drain_valve_on=0, soap_wash=1, water_wash=1, done=0
# Time=                 505, Clock=1, Reset=0, start=1, door_close=1, filled=1, detergent_added=1, cycle_timeout=1, drained=1, spin_timeout=1, door_lock=1, motor_on=0, fill_valve_on=0, drain_valve_on=0, soap_wash=1, water_wash=1, done=0
# Time=                 510, Clock=0, Reset=0, start=1, door_close=1, filled=1, detergent_added=1, cycle_timeout=1, drained=1, spin_timeout=1, door_lock=1, motor_on=0, fill_valve_on=0, drain_valve_on=0, soap_wash=1, water_wash=1, done=0
# Time=                 515, Clock=1, Reset=0, start=1, door_close=1, filled=1, detergent_added=1, cycle_timeout=1, drained=1, spin_timeout=1, door_lock=1, motor_on=0, fill_valve_on=0, drain_valve_on=0, soap_wash=1, water_wash=1, done=0
# Time=                 520, Clock=0, Reset=0, start=1, door_close=1, filled=1, detergent_added=1, cycle_timeout=1, drained=1, spin_timeout=1, door_lock=1, motor_on=0, fill_valve_on=0, drain_valve_on=0, soap_wash=1, water_wash=1, done=0
# Time=                 525, Clock=1, Reset=0, start=1, door_close=1, filled=1, detergent_added=1, cycle_timeout=1, drained=1, spin_timeout=1, door_lock=1, motor_on=0, fill_valve_on=0, drain_valve_on=0, soap_wash=1, water_wash=1, done=1
# Time=                 530, Clock=0, Reset=0, start=1, door_close=1, filled=1, detergent_added=1, cycle_timeout=1, drained=1, spin_timeout=1, door_lock=1, motor_on=0, fill_valve_on=0, drain_valve_on=0, soap_wash=1, water_wash=1, done=1
# Time=                 535, Clock=1, Reset=0, start=1, door_close=1, filled=1, detergent_added=1, cycle_timeout=1, drained=1, spin_timeout=1, door_lock=1, motor_on=0, fill_valve_on=0, drain_valve_on=0, soap_wash=1, water_wash=1, done=0
# Time=                 540, Clock=0, Reset=0, start=1, door_close=1, filled=1, detergent_added=1, cycle_timeout=1, drained=1, spin_timeout=1, door_lock=1, motor_on=0, fill_valve_on=0, drain_valve_on=0, soap_wash=1, water_wash=1, done=0
# Time=                 545, Clock=1, Reset=0, start=1, door_close=1, filled=1, detergent_added=1, cycle_timeout=1, drained=1, spin_timeout=1, door_lock=1, motor_on=0, fill_valve_on=0, drain_valve_on=0, soap_wash=1, water_wash=1, done=0
# Time=                 550, Clock=0, Reset=0, start=1, door_close=1, filled=1, detergent_added=1, cycle_timeout=1, drained=1, spin_timeout=1, door_lock=1, motor_on=0, fill_valve_on=0, drain_valve_on=0, soap_wash=1, water_wash=1, done=0
# Time=                 555, Clock=1, Reset=0, start=1, door_close=1, filled=1, detergent_added=1, cycle_timeout=1, drained=1, spin_timeout=1, door_lock=1, motor_on=0, fill_valve_on=0, drain_valve_on=0, soap_wash=1, water_wash=1, done=0
# Time=                 560, Clock=0, Reset=0, start=1, door_close=1, filled=1, detergent_added=1, cycle_timeout=1, drained=1, spin_timeout=1, door_lock=1, motor_on=0, fill_valve_on=0, drain_valve_on=0, soap_wash=1, water_wash=1, done=0
# Time=                 565, Clock=1, Reset=0, start=1, door_close=1, filled=1, detergent_added=1, cycle_timeout=1, drained=1, spin_timeout=1, door_lock=1, motor_on=0, fill_valve_on=0, drain_valve_on=0, soap_wash=1, water_wash=1, done=1
# Time=                 570, Clock=0, Reset=0, start=1, door_close=1, filled=1, detergent_added=1, cycle_timeout=1, drained=1, spin_timeout=1, door_lock=1, motor_on=0, fill_valve_on=0, drain_valve_on=0, soap_wash=1, water_wash=1, done=1
# Time=                 575, Clock=1, Reset=0, start=1, door_close=1, filled=1, detergent_added=1, cycle_timeout=1, drained=1, spin_timeout=1, door_lock=1, motor_on=0, fill_valve_on=0, drain_valve_on=0, soap_wash=1, water_wash=1, done=0
# Time=                 580, Clock=0, Reset=0, start=1, door_close=1, filled=1, detergent_added=1, cycle_timeout=1, drained=1, spin_timeout=1, door_lock=1, motor_on=0, fill_valve_on=0, drain_valve_on=0, soap_wash=1, water_wash=1, done=0
# Time=                 585, Clock=1, Reset=0, start=1, door_close=1, filled=1, detergent_added=1, cycle_timeout=1, drained=1, spin_timeout=1, door_lock=1, motor_on=0, fill_valve_on=0, drain_valve_on=0, soap_wash=1, water_wash=1, done=0
# Time=                 590, Clock=0, Reset=0, start=1, door_close=1, filled=1, detergent_added=1, cycle_timeout=1, drained=1, spin_timeout=1, door_lock=1, motor_on=0, fill_valve_on=0, drain_valve_on=0, soap_wash=1, water_wash=1, done=0
# Time=                 595, Clock=1, Reset=0, start=1, door_close=1, filled=1, detergent_added=1, cycle_timeout=1, drained=1, spin_timeout=1, door_lock=1, motor_on=0, fill_valve_on=0, drain_valve_on=0, soap_wash=1, water_wash=1, done=0
add wave -position insertpoint sim:/new_test/*
# Can't move the Now cursor.
run
# Time=                 600, Clock=0, Reset=0, start=1, door_close=1, filled=1, detergent_added=1, cycle_timeout=1, drained=1, spin_timeout=1, door_lock=1, motor_on=0, fill_valve_on=0, drain_valve_on=0, soap_wash=1, water_wash=1, done=0
# Time=                 605, Clock=1, Reset=0, start=1, door_close=1, filled=1, detergent_added=1, cycle_timeout=1, drained=1, spin_timeout=1, door_lock=1, motor_on=0, fill_valve_on=0, drain_valve_on=0, soap_wash=1, water_wash=1, done=1
# Time=                 610, Clock=0, Reset=0, start=1, door_close=1, filled=1, detergent_added=1, cycle_timeout=1, drained=1, spin_timeout=1, door_lock=1, motor_on=0, fill_valve_on=0, drain_valve_on=0, soap_wash=1, water_wash=1, done=1
