5th Semester/sp_lab/coaProject/src/sap1/top_tb.vcd
$date
	Thu Feb  1 01:22:36 2024
$end
$version
	Icarus Verilog
$end
$timescale
	1s
$end
$scope module top_tb $end
$var wire 8 ! pc_out [7:0] $end
$var wire 1 " pc_inc $end
$var wire 1 # pc_en $end
$var wire 8 $ mem_out [7:0] $end
$var wire 1 % mem_en $end
$var wire 1 & mar_load $end
$var wire 8 ' ir_out [7:0] $end
$var wire 1 ( ir_load $end
$var wire 1 ) ir_en $end
$var wire 1 * hlt $end
$var wire 1 + clk $end
$var wire 8 , b_out [7:0] $end
$var wire 1 - b_load $end
$var wire 1 . adder_sub $end
$var wire 8 / adder_out [7:0] $end
$var wire 1 0 adder_en $end
$var wire 8 1 a_out [7:0] $end
$var wire 1 2 a_load $end
$var wire 1 3 a_en $end
$var reg 8 4 bus [7:0] $end
$var reg 1 5 clk_in $end
$var reg 1 6 rst $end
$var integer 32 7 i [31:0] $end
$scope module adder $end
$var wire 1 . sub $end
$var wire 8 8 out [7:0] $end
$var wire 8 9 b [7:0] $end
$var wire 8 : a [7:0] $end
$upscope $end
$scope module clock $end
$var wire 1 5 clk_in $end
$var wire 1 * hlt $end
$var wire 1 + clk_out $end
$upscope $end
$scope module controller $end
$var wire 1 + clk $end
$var wire 4 ; opcode [3:0] $end
$var wire 12 < out [11:0] $end
$var wire 1 6 rst $end
$var reg 12 = ctrl_word [11:0] $end
$var reg 3 > stage [2:0] $end
$upscope $end
$scope module ir $end
$var wire 8 ? bus [7:0] $end
$var wire 1 + clk $end
$var wire 1 ( load $end
$var wire 8 @ out [7:0] $end
$var wire 1 6 rst $end
$var reg 8 A ir [7:0] $end
$upscope $end
$scope module mem $end
$var wire 8 B bus [7:0] $end
$var wire 1 + clk $end
$var wire 1 & load $end
$var wire 8 C out [7:0] $end
$var wire 1 6 rst $end
$var reg 4 D mar [3:0] $end
$upscope $end
$scope module pc $end
$var wire 1 + clk $end
$var wire 1 " inc $end
$var wire 1 6 rst $end
$var wire 8 E out [7:0] $end
$var reg 4 F pc [3:0] $end
$upscope $end
$scope module reg_a $end
$var wire 8 G bus [7:0] $end
$var wire 1 + clk $end
$var wire 1 2 load $end
$var wire 1 6 rst $end
$var wire 8 H out [7:0] $end
$var reg 8 I reg_a [7:0] $end
$upscope $end
$scope module reg_b $end
$var wire 8 J bus [7:0] $end
$var wire 1 + clk $end
$var wire 1 - load $end
$var wire 1 6 rst $end
$var wire 8 K out [7:0] $end
$var reg 8 L reg_b [7:0] $end
$upscope $end
$upscope $end
$enddefinitions $end
#0
$dumpvars
b0 L
b0 K
b0 J
b0 I
b0 H
b0 G
b0 F
b0 E
b0 D
b1101 C
b0 B
b0 A
b0 @
b0 ?
b0 >
b1100000000 =
b1100000000 <
b0 ;
b0 :
b0 9
b0 8
b0 7
16
05
b0 4
03
02
b0 1
00
b0 /
0.
0-
b0 ,
0+
0*
0)
0(
b0 '
1&
0%
b1101 $
1#
0"
b0 !
$end
#1
1+
b1 7
15
06
#2
1"
0&
0#
b10000000000 <
b10000000000 =
b1 >
0+
b10 7
05
#3
b1 !
b1 E
b1 F
1+
b11 7
15
#4
b1101 4
b1101 ?
b1101 B
b1101 G
b1101 J
1(
1%
0"
b11000000 <
b11000000 =
b10 >
0+
b100 7
05
#5
b1101 '
b1101 @
b1101 A
1+
b101 7
15
#6
1&
1)
0(
0%
b100100000 <
b100100000 =
b11 >
0+
b110 7
05
#7
b11 $
b11 C
b1101 D
1+
b111 7
15
#8
b11 4
b11 ?
b11 B
b11 G
b11 J
12
1%
0)
0&
b10010000 <
b10010000 =
b100 >
0+
b1000 7
05
#9
b11 /
b11 8
b11 1
b11 :
b11 H
b11 I
1+
b1001 7
15
#10
b0 4
b0 ?
b0 B
b0 G
b0 J
02
0%
b0 <
b0 =
b101 >
0+
b1010 7
05
#11
1+
b1011 7
15
#12
b1 4
b1 ?
b1 B
b1 G
b1 J
1&
1#
b1100000000 <
b1100000000 =
b0 >
0+
b1100 7
05
#13
b11110 $
b11110 C
b1 D
1+
b1101 7
15
#14
b0 4
b0 ?
b0 B
b0 G
b0 J
1"
0&
0#
b10000000000 <
b10000000000 =
b1 >
0+
b1110 7
05
#15
b10 !
b10 E
b10 F
1+
b1111 7
15
#16
b11110 4
b11110 ?
b11110 B
b11110 G
b11110 J
1(
1%
0"
b11000000 <
b11000000 =
b10 >
0+
b10000 7
05
#17
b11000000 <
b11000000 =
b1 ;
b11110 '
b11110 @
b11110 A
1+
b10001 7
15
#18
1&
1)
0(
0%
b100100000 <
b100100000 =
b11 >
0+
b10010 7
05
#19
b100 $
b100 C
b1110 D
1+
b10011 7
15
#20
b100 4
b100 ?
b100 B
b100 G
b100 J
1-
1%
0)
0&
b10000100 <
b10000100 =
b100 >
0+
b10100 7
05
#21
b111 /
b111 8
b100 ,
b100 9
b100 K
b100 L
1+
b10101 7
15
#22
b111 4
b111 ?
b111 B
b111 G
b111 J
12
10
0-
0%
b10001 <
b10001 =
b101 >
0+
b10110 7
05
#23
b1011 4
b1011 ?
b1011 B
b1011 G
b1011 J
b1011 /
b1011 8
b111 1
b111 :
b111 H
b111 I
1+
b10111 7
15
#24
b10 4
b10 ?
b10 B
b10 G
b10 J
1&
1#
00
02
b1100000000 <
b1100000000 =
b0 >
0+
b11000 7
05
#25
b101111 $
b101111 C
b10 D
1+
b11001 7
15
#26
b0 4
b0 ?
b0 B
b0 G
b0 J
1"
0&
0#
b10000000000 <
b10000000000 =
b1 >
0+
b11010 7
05
#27
b11 !
b11 E
b11 F
1+
b11011 7
15
#28
b101111 4
b101111 ?
b101111 B
b101111 G
b101111 J
1(
1%
0"
b11000000 <
b11000000 =
b10 >
0+
b11100 7
05
#29
b11000000 <
b11000000 =
b10 ;
b101111 '
b101111 @
b101111 A
1+
b11101 7
15
#30
1&
1)
0(
0%
b100100000 <
b100100000 =
b11 >
0+
b11110 7
05
#31
b10 $
b10 C
b1111 D
1+
b11111 7
15
#32
b10 4
b10 ?
b10 B
b10 G
b10 J
1-
1%
0)
0&
b10000100 <
b10000100 =
b100 >
0+
b100000 7
05
#33
b1001 /
b1001 8
b10 ,
b10 9
b10 K
b10 L
1+
b100001 7
15
#34
b101 /
b101 8
b101 4
b101 ?
b101 B
b101 G
b101 J
12
10
1.
0-
0%
b10011 <
b10011 =
b101 >
0+
b100010 7
05
#35
b11 4
b11 ?
b11 B
b11 G
b11 J
b11 /
b11 8
b101 1
b101 :
b101 H
b101 I
1+
b100011 7
15
#36
b111 /
b111 8
1&
1#
00
0.
02
b1100000000 <
b1100000000 =
b0 >
0+
b100100 7
05
#37
b11110000 $
b11110000 C
b11 D
1+
b100101 7
15
#38
b0 4
b0 ?
b0 B
b0 G
b0 J
1"
0&
0#
b10000000000 <
b10000000000 =
b1 >
0+
b100110 7
05
#39
b100 !
b100 E
b100 F
1+
b100111 7
15
#40
b11110000 4
b11110000 ?
b11110000 B
b11110000 G
b11110000 J
1(
1%
0"
b11000000 <
b11000000 =
b10 >
0+
b101000 7
05
#41
b11000000 <
b11000000 =
b1111 ;
b11110000 '
b11110000 @
b11110000 A
1+
b101001 7
15
#42
b0 4
b0 ?
b0 B
b0 G
b0 J
1*
0(
0%
b100000000000 <
b100000000000 =
b11 >
0+
b101010 7
05
#43
b101011 7
15
#44
b101100 7
05
#45
b101101 7
15
#46
b101110 7
05
#47
b101111 7
15
#48
b110000 7
05
#49
b110001 7
15
#50
b110010 7
05
#51
b110011 7
15
#52
b110100 7
05
#53
b110101 7
15
#54
b110110 7
05
#55
b110111 7
15
#56
b111000 7
05
#57
b111001 7
15
#58
b111010 7
05
#59
b111011 7
15
#60
b111100 7
05
#61
b111101 7
15
#62
b111110 7
05
#63
b111111 7
15
#64
b1000000 7
05
#65
b1000001 7
15
#66
b1000010 7
05
#67
b1000011 7
15
#68
b1000100 7
05
#69
b1000101 7
15
#70
b1000110 7
05
#71
b1000111 7
15
#72
b1001000 7
05
#73
b1001001 7
15
#74
b1001010 7
05
#75
b1001011 7
15
#76
b1001100 7
05
#77
b1001101 7
15
#78
b1001110 7
05
#79
b1001111 7
15
#80
b1010000 7
05
#81
b1010001 7
15
#82
b1010010 7
05
#83
b1010011 7
15
#84
b1010100 7
05
#85
b1010101 7
15
#86
b1010110 7
05
#87
b1010111 7
15
#88
b1011000 7
05
#89
b1011001 7
15
#90
b1011010 7
05
#91
b1011011 7
15
#92
b1011100 7
05
#93
b1011101 7
15
#94
b1011110 7
05
#95
b1011111 7
15
#96
b1100000 7
05
#97
b1100001 7
15
#98
b1100010 7
05
#99
b1100011 7
15
#100
b1100100 7
05
#101
b1100101 7
15
#102
b1100110 7
05
#103
b1100111 7
15
#104
b1101000 7
05
#105
b1101001 7
15
#106
b1101010 7
05
#107
b1101011 7
15
#108
b1101100 7
05
#109
b1101101 7
15
#110
b1101110 7
05
#111
b1101111 7
15
#112
b1110000 7
05
#113
b1110001 7
15
#114
b1110010 7
05
#115
b1110011 7
15
#116
b1110100 7
05
#117
b1110101 7
15
#118
b1110110 7
05
#119
b1110111 7
15
#120
b1111000 7
05
#121
b1111001 7
15
#122
b1111010 7
05
#123
b1111011 7
15
#124
b1111100 7
05
#125
b1111101 7
15
#126
b1111110 7
05
#127
b1111111 7
15
#128
b10000000 7
05
